Infectious Disease Model Library and Utilities • idmodelr
…
Specify the timespan over which to run the model.

times <- seq(0, 50, 0.1)

Simulate the model.

traj <- solve_ode(model = SIR_demographics_ode,
          inits, parameters,
          times, as.data.frame = TRUE)

traj
#> # A tibble: 501 x 4
#>     time     S     I      R
#>    <dbl> <dbl> <dbl>  <dbl>
#>  1   0    999   1    0     
#>  2   0.1  999.  1.28 0.0567
#>  3   0.2  998.  1.64 0.129 
#>  4   0.3  998.  2.11 0.222 
#>  5   0.4  997.  2.70 0.342 
#>  6   0.5  996.  3.46 0.494 
#>  7   0.6  995.  4.43 0.690 
#>  8   0.7  993.  5.67 0.940 
#>  9   0.8  991.  7.25 1.26  
#> 10   0.9  989.  9.28 1.67  
#> # … with 491 more rows
…
