A Simple Wrapper for lsoda — solve_ode • idmodelr
…
##Time for model to run over
tbegin = 0
tend = 50
times <- seq(tbegin, tend, 1)

##Vectorise input
parameters <- as.matrix(c(beta = beta))
inits <- as.matrix(c(S = S_0, I = I_0))

solve_ode(model = SI_ode, inits, parameters, times, as.data.frame = TRUE)
#> # A tibble: 51 x 3
#>     time        S            I
#>    <dbl>    <dbl>        <dbl>
#>  1     0 99999.00     1.000000
#>  2     1 99997.00     3.004114
#>  3     2 99990.98     9.024325
#>  4     3 99972.89    27.105692
#>  5     4 99918.61    81.385864
#>  6     5 99755.90   244.098706
#>  7     6 99270.26   729.743463
#>  8     7 97839.33  2160.670056
#>  9     8 93778.42  6221.581681
#> 10     9 83381.54 16618.462259
#> # ... with 41 more rows
…
